Controle Biológico de Nematóides - Projeto Final
…
Importação do conjunto de dados

O primeiro passo para qualquer análise de dados é a importação dos dados que serão trabalhados. O conjunto de dados do experimento foi importado de um arquivo Excel (.xlsx) através da função read_excel() do pacote readxl. O nome atribuído ao data frame foi controle.

controle <- read_excel("Controle biológico.xlsx")

controle

# A tibble: 80 × 7
   Trat   Dose   Rep  MPAS   MRF   ovos ovosg
   <chr> <dbl> <dbl> <dbl> <dbl>  <dbl> <dbl>
 1 A         0     1  22.4  69   121250 1757.
 2 A         0     2  10.9  49.2  49000  996.
 3 A         0     3   3.8  18.8  26000 1383.
 4 A         0     4  11.9  57.3  99000 1728.
 5 A         0     5  21.6  65.1  96000 1475.
 6 A      1000     1  27    68.4 143000 2091.
 7 A      1000     2   9.4  50.4  63000 1250 
 8 A      1000     3  21.8  46.7  35000  749.
 9 A      1000     4   5.2  19.7  17500  888.
10 A      1000     5  15.5  64.5  50000  775.
# ℹ 70 more rows
…
